uart_waveform.vcd
$date
   Sun Aug 17 00:21:28 2025
$end

$version
  2024.1
  $dumpfile ("uart_waveform.vcd") 
$end

$timescale
  1ps
$end

$scope module uart_tb $end
$var reg 8 ! data [7:0] $end
$var reg 1 " clk $end
$var reg 1 # enable $end
$var reg 1 $ rdy_clr $end
$var wire 1 % tx_busy $end
$var wire 1 & rdy $end
$var wire 8 ' rxdata [7:0] $end
$var wire 1 ( loopback $end
$scope module dut $end
$var wire 8 ) din [7:0] $end
$var wire 1 * wr_en $end
$var wire 1 + clk_50m $end
$var wire 1 ( tx $end
$var wire 1 % tx_busy $end
$var wire 1 ( rx $end
$var wire 1 , rdy_clr $end
$var wire 1 & rdy $end
$var wire 8 ' dout [7:0] $end
$var wire 1 - rxclk_en $end
$var wire 1 . txclk_en $end
$scope module uart_baud $end
$var wire 1 + clk_50m $end
$var wire 1 - rxclk_en $end
$var wire 1 . txclk_en $end
$var reg 5 / rx_acc [4:0] $end
$var reg 9 0 tx_acc [8:0] $end
$upscope $end
$scope module uart_tx $end
$var wire 8 ) din [7:0] $end
$var wire 1 * wr_en $end
$var wire 1 + clk_50m $end
$var wire 1 . clken $end
$var reg 1 1 tx $end
$var wire 1 % tx_busy $end
$var reg 8 2 data [7:0] $end
$var reg 3 3 bitpos [2:0] $end
$var reg 2 4 state [1:0] $end
$upscope $end
$scope module uart_rx $end
$var wire 1 ( rx $end
$var wire 1 , rdy_clr $end
$var wire 1 + clk_50m $end
$var wire 1 - clken $end
$var reg 1 5 rdy $end
$var reg 8 6 data [7:0] $end
$var reg 2 7 state [1:0] $end
$var reg 4 8 sample [3:0] $end
$var reg 4 9 bitpos [3:0] $end
$var reg 8 : scratch [7:0] $end
$upscope $end
$upscope $end
$scope task send_byte $end
$var reg 8 ; d [7:0] $end
$upscope $end
$upscope $end
$enddefinitions $end

#0
$dumpvars
b0 !
0"
0#
0$
0%
0&
b0 '
1(
b0 )
0*
0+
0,
1-
1.
b0 /
b0 0
11
b0 2
b0 3
b0 4
05
b0 6
b0 7
b0 8
b0 9
b0 :
bx ;
$end

#10000
1"
1+
0-
0.
b1 /
b1 0

#20000
0"
0+

#30000
1"
1+
b10 /
b10 0

#40000
0"
0+

#50000
1"
1+
b11 /
b11 0

#60000
0"
0+

#70000
1"
1+
b100 /
b100 0

#80000
0"
0+

#90000
1"
1+
b101 /
b101 0

#100000
0"
1#
1*
0+
b0 ;

#110000
1"
1%
1+
b110 /
b110 0
b1 4

#120000
0"
0#
0*
0+

#130000
1"
1+
b111 /
b111 0

#140000
0"
0+

#150000
1"
1+
b1000 /
b1000 0

#160000
0"
0+

#170000
1"
1+
b1001 /
b1001 0

#180000
0"
0+

#190000
1"
1+
b1010 /
b1010 0

#200000
0"
0+

#210000
1"
1+
b1011 /
b1011 0

#220000
0"
0+

#230000
1"
1+
b1100 /
b1100 0

#240000
0"
0+

#250000
1"
1+
b1101 /
b1101 0

#260000
0"
0+

#270000
1"
1+
b1110 /
b1110 0

#280000
0"
0+

#290000
1"
1+
b1111 /
b1111 0

#300000
0"
0+

#310000
1"
1+
b10000 /
b10000 0

#320000
0"
0+

#330000
1"
1+
b10001 /
b10001 0

#340000
0"
0+

#350000
1"
1+
b10010 /
b10010 0

#360000
0"
0+

#370000
1"
1+
b10011 /
b10011 0

#380000
0"
0+

#390000
1"
1+
b10100 /
b10100 0

#400000
0"
0+

#410000
1"
1+
b10101 /
b10101 0

#420000
0"
0+

#430000
1"
1+
b10110 /
b10110 0

#440000
0"
0+

#450000
1"
1+
b10111 /
b10111 0

#460000
0"
0+

#470000
1"
1+
b11000 /
b11000 0

#480000
0"
0+

#490000
1"
1+
b11001 /
b11001 0

#500000
0"
0+

#510000
1"
1+
b11010 /
b11010 0

#520000
0"
0+

#530000
1"
1+
b11011 /
b11011 0

#540000
0"
0+

#550000
1"
1+
1-
b0 /
b11100 0

#560000
0"
0+

#570000
1"
1+
0-
b1 /
b11101 0

#580000
0"
0+

#590000
1"
1+
b10 /
b11110 0

#600000
0"
0+

#610000
1"
1+
b11 /
b11111 0

#620000
0"
0+

#630000
1"
1+
b100 /
b100000 0

#640000
0"
0+

#650000
1"
1+
b101 /
b100001 0

#660000
0"
0+

#670000
1"
1+
b110 /
b100010 0

#680000
0"
0+

#690000
1"
1+
b111 /
b100011 0

#700000
0"
0+

#710000
1"
1+
b1000 /
b100100 0

#720000
0"
0+

#730000
1"
1+
b1001 /
b100101 0

#740000
0"
0+

#750000
1"
1+
b1010 /
b100110 0

#760000
0"
0+

#770000
1"
1+
b1011 /
b100111 0

#780000
0"
0+

#790000
1"
1+
b1100 /
b101000 0

#800000
0"
0+

#810000
1"
1+
b1101 /
b101001 0

#820000
0"
0+

#830000
1"
1+
b1110 /
b101010 0

#840000
0"
0+

#850000
1"
1+
b1111 /
b101011 0

#860000
0"
0+

#870000
1"
1+
b10000 /
b101100 0

#880000
0"
0+

#890000
1"
1+
b10001 /
b101101 0

#900000
0"
0+

#910000
1"
1+
b10010 /
b101110 0

#920000
0"
0+

#930000
1"
1+
b10011 /
b101111 0

#940000
0"
0+

#950000
1"
1+
b10100 /
b110000 0

#960000
0"
0+

#970000
1"
1+
b10101 /
b110001 0

#980000
0"
0+

#990000
1"
1+
b10110 /
b110010 0

